{
    "years": [1980, 2015],
    "chain": [0, 0, 0],
    "method": 0,
    "idir": "/home/ec5/chung_box_model/base",
    "sce_run": [0, 16, 0],
    "sce_def": [
        "/home/ec5/chung_box_model/runs/sce000000",
        [
            "c0", "d0", "q_total", "dq_total", "OH_a", "tau", "KIE_tau_factor", "tv", "vv",
            "m_atm", "OH", "Cl", "T", "KIE_tau"
            ]
        ],
    "sce_pre": null,
    "obs_def": [
        "/home/ec5/chung_box_model/runs/sce000000",
        ["c", "d_13C", "d_2H"]
        ],
    "y_var": [
        "c", "d_13C", "d_2H", "D_C13H3D", "D_C12H2D2"
        ],
    "theta_var": [
        ],
    "model_var": [
        "c0", "d0", "q_total", "dq_total", "q_ftot", "dq_ftot",
        "OH_a", "tau", "KIE_tau_factor", "tv", "vv",
        "m_atm", "OH", "Cl", "T", "KIE_tau"
        ],
    "tile": {
        "dq": [[35, 1, 4], "1Y"]
        },
    "pslice": {
        "dq": "np.s_[..., [0, 1], :]"
        },
    "D_obs": [4.5, 90.0],
    "iso_sel": [0, 1, 2]
}
